[
  {
  "name": "Bank of America",
  "registrationCountry": "US",
  "depositorName": "Isaac Clark",
  "account": {
    "id": 10001,
    "type": "deposit",
    "amount": 150000,
    "probability": 0.06,
    "timeConstraints": 5
  }
},
  {
    "name": "DeutscheBank",
    "registrationCountry": "DE",
    "depositorName": "Karsten Bergholz",
    "account": {
      "id": 10002,
      "type": "metal",
      "amount": 1000,
      "probability": 0.02,
      "timeConstraints": 15
    }
  },
  {
    "name": "CommerzBank",
    "registrationCountry": "DE",
    "depositorName": "Wolfgang Hess",
    "account": {
      "id": 10003,
      "type": "payment",
      "amount": 100000,
      "probability": 0.015,
      "timeConstraints": -1
    }
  },
  {
    "name": "Raiffeisen Bank",
    "registrationCountry": "AU",
    "depositorName": "Nikki Lauda",
    "account": {
      "id": 10004,
      "type": "savings",
      "amount": 100000,
      "probability": 0.03,
      "timeConstraints": 15
    }
  },
  {
    "name": "Sberbank",
    "registrationCountry": "RU",
    "depositorName": "Vladimir Solovev",
    "account": {
      "id": 10005,
      "type": "metal",
      "amount": 100000,
      "probability": 0.001,
      "timeConstraints": 250
    }
  }
]